%YAML 1.1
%TAG !u! tag:unity3d.com,2011:
--- !u!29 &1
OcclusionCullingSettings:
  m_ObjectHideFlags: 0
  serializedVersion: 2
  m_OcclusionBakeSettings:
    smallestOccluder: 5
    smallestHole: 0.25
    backfaceThreshold: 100
  m_SceneGUID: 00000000000000000000000000000000
  m_OcclusionCullingData: {fileID: 0}
--- !u!104 &2
RenderSettings:
  m_ObjectHideFlags: 0
  serializedVersion: 8
  m_Fog: 0
  m_FogColor: {r: 0.5, g: 0.5, b: 0.5, a: 1}
  m_FogMode: 3
  m_FogDensity: 0.01
  m_LinearFogStart: 0
  m_LinearFogEnd: 300
  m_AmbientSkyColor: {r: 0.2, g: 0.2, b: 0.2, a: 1}
  m_AmbientEquatorColor: {r: 0.2, g: 0.2, b: 0.2, a: 1}
  m_AmbientGroundColor: {r: 0.2, g: 0.2, b: 0.2, a: 1}
  m_AmbientIntensity: 1
  m_AmbientMode: 3
  m_SubtractiveShadowColor: {r: 0.42, g: 0.478, b: 0.627, a: 1}
  m_SkyboxMaterial: {fileID: 2100000, guid: a2126534b3a11b34e977105bd9e3cc03, type: 2}
  m_HaloStrength: 0.5
  m_FlareStrength: 1
  m_FlareFadeSpeed: 3
  m_HaloTexture: {fileID: 0}
  m_SpotCookie: {fileID: 10001, guid: 0000000000000000e000000000000000, type: 0}
  m_DefaultReflectionMode: 0
  m_DefaultReflectionResolution: 128
  m_ReflectionBounces: 1
  m_ReflectionIntensity: 1
  m_CustomReflection: {fileID: 0}
  m_Sun: {fileID: 0}
  m_IndirectSpecularColor: {r: 0, g: 0, b: 0, a: 1}
--- !u!157 &4
LightmapSettings:
  m_ObjectHideFlags: 0
  serializedVersion: 11
  m_GIWorkflowMode: 1
  m_GISettings:
    serializedVersion: 2
    m_BounceScale: 1
    m_IndirectOutputScale: 1
    m_AlbedoBoost: 1
    m_TemporalCoherenceThreshold: 1
    m_EnvironmentLightingMode: 0
    m_EnableBakedLightmaps: 1
    m_EnableRealtimeLightmaps: 0
  m_LightmapEditorSettings:
    serializedVersion: 9
    m_Resolution: 1
    m_BakeResolution: 50
    m_TextureWidth: 1024
    m_TextureHeight: 1024
    m_AO: 1
    m_AOMaxDistance: 1
    m_CompAOExponent: 1
    m_CompAOExponentDirect: 0
    m_Padding: 2
    m_LightmapParameters: {fileID: 0}
    m_LightmapsBakeMode: 1
    m_TextureCompression: 0
    m_FinalGather: 0
    m_FinalGatherFiltering: 1
    m_FinalGatherRayCount: 256
    m_ReflectionCompression: 2
    m_MixedBakeMode: 1
    m_BakeBackend: 0
    m_PVRSampling: 1
    m_PVRDirectSampleCount: 32
    m_PVRSampleCount: 500
    m_PVRBounces: 2
    m_PVRFiltering: 0
    m_PVRFilteringMode: 1
    m_PVRCulling: 1
    m_PVRFilteringGaussRadiusDirect: 1
    m_PVRFilteringGaussRadiusIndirect: 5
    m_PVRFilteringGaussRadiusAO: 2
    m_PVRFilteringAtrousColorSigma: 1
    m_PVRFilteringAtrousNormalSigma: 1
    m_PVRFilteringAtrousPositionSigma: 1
  m_LightingDataAsset: {fileID: 0}
  m_UseShadowmask: 0
--- !u!196 &5
NavMeshSettings:
  serializedVersion: 2
  m_ObjectHideFlags: 0
  m_BuildSettings:
    serializedVersion: 2
    agentTypeID: 0
    agentRadius: 0.5
    agentHeight: 2
    agentSlope: 45
    agentClimb: 0.4
    ledgeDropHeight: 0
    maxJumpAcrossDistance: 0
    minRegionArea: 2
    manualCellSize: 0
    cellSize: 0.16666666
    manualTileSize: 0
    tileSize: 256
    accuratePlacement: 0
  m_NavMeshData: {fileID: 0}
--- !u!1 &124790325
GameObject:
  m_ObjectHideFlags: 0
  m_PrefabParentObject: {fileID: 0}
  m_PrefabInternal: {fileID: 0}
  serializedVersion: 5
  m_Component:
  - component: {fileID: 124790327}
  - component: {fileID: 124790326}
  m_Layer: 0
  m_Name: GesturesDebugText
  m_TagString: Untagged
  m_Icon: {fileID: 0}
  m_NavMeshLayer: 0
  m_StaticEditorFlags: 0
  m_IsActive: 0
--- !u!132 &124790326
GUIText:
  m_ObjectHideFlags: 0
  m_PrefabParentObject: {fileID: 0}
  m_PrefabInternal: {fileID: 0}
  m_GameObject: {fileID: 124790325}
  m_Enabled: 1
  serializedVersion: 3
  m_Text: 
  m_Anchor: 0
  m_Alignment: 0
  m_PixelOffset: {x: 0, y: 0}
  m_LineSpacing: 1
  m_TabSize: 4
  m_Font: {fileID: 10102, guid: 0000000000000000e000000000000000, type: 0}
  m_Material: {fileID: 0}
  m_FontSize: 20
  m_FontStyle: 0
  m_Color:
    serializedVersion: 2
    rgba: 4294967295
  m_PixelCorrect: 1
  m_RichText: 1
--- !u!4 &124790327
Transform:
  m_ObjectHideFlags: 0
  m_PrefabParentObject: {fileID: 0}
  m_PrefabInternal: {fileID: 0}
  m_GameObject: {fileID: 124790325}
  m_LocalRotation: {x: 0, y: 0, z: 0, w: 1}
  m_LocalPosition: {x: 0, y: 0.88, z: 0}
  m_LocalScale: {x: 1, y: 1, z: 1}
  m_Children: []
  m_Father: {fileID: 0}
  m_RootOrder: 10
  m_LocalEulerAnglesHint: {x: 0, y: 0, z: 0}
--- !u!1 &225078885 stripped
GameObject:
  m_PrefabParentObject: {fileID: 100176, guid: ae23d50304c93b9418b65cec8f9fe954, type: 3}
  m_PrefabInternal: {fileID: 1435215108}
--- !u!114 &225078887
MonoBehaviour:
  m_ObjectHideFlags: 0
  m_PrefabParentObject: {fileID: 0}
  m_PrefabInternal: {fileID: 0}
  m_GameObject: {fileID: 225078885}
  m_Enabled: 1
  m_EditorHideFlags: 0
  m_Script: {fileID: 11500000, guid: 21d009565a343ca46888bb2b74c7ef3d, type: 3}
  m_Name: 
  m_EditorClassIdentifier: 
  mirroredMovement: 0
  verticalMovement: 1
  smoothFactor: 5
  offsetRelativeToSensor: 0
--- !u!95 &225078888
Animator:
  serializedVersion: 3
  m_ObjectHideFlags: 0
  m_PrefabParentObject: {fileID: 0}
  m_PrefabInternal: {fileID: 0}
  m_GameObject: {fileID: 225078885}
  m_Enabled: 1
  m_Avatar: {fileID: 9000000, guid: ae23d50304c93b9418b65cec8f9fe954, type: 3}
  m_Controller: {fileID: 0}
  m_CullingMode: 0
  m_UpdateMode: 0
  m_ApplyRootMotion: 1
  m_LinearVelocityBlending: 0
  m_WarningMessage: 
  m_HasTransformHierarchy: 1
  m_AllowConstantClipSamplingOptimization: 1
--- !u!1 &353002435
GameObject:
  m_ObjectHideFlags: 0
  m_PrefabParentObject: {fileID: 0}
  m_PrefabInternal: {fileID: 0}
  serializedVersion: 5
  m_Component:
  - component: {fileID: 353002437}
  - component: {fileID: 353002436}
  m_Layer: 0
  m_Name: HandCursor
  m_TagString: Untagged
  m_Icon: {fileID: 0}
  m_NavMeshLayer: 0
  m_StaticEditorFlags: 0
  m_IsActive: 1
--- !u!131 &353002436
GUITexture:
  m_ObjectHideFlags: 0
  m_PrefabParentObject: {fileID: 0}
  m_PrefabInternal: {fileID: 0}
  m_GameObject: {fileID: 353002435}
  m_Enabled: 1
  m_Texture: {fileID: 2800000, guid: fcd5baf5c8fcc4f43996f1780fb46e6a, type: 3}
  m_Color: {r: 0.5, g: 0.5, b: 0.5, a: 0.5019608}
  m_PixelInset:
    serializedVersion: 2
    x: -10
    y: -38
    width: 32
    height: 40
  m_LeftBorder: 0
  m_RightBorder: 0
  m_TopBorder: 0
  m_BottomBorder: 0
--- !u!4 &353002437
Transform:
  m_ObjectHideFlags: 0
  m_PrefabParentObject: {fileID: 0}
  m_PrefabInternal: {fileID: 0}
  m_GameObject: {fileID: 353002435}
  m_LocalRotation: {x: 0, y: 0, z: 0, w: 1}
  m_LocalPosition: {x: 0.5, y: 0.5, z: 0}
  m_LocalScale: {x: 0, y: 0, z: 1}
  m_Children: []
  m_Father: {fileID: 0}
  m_RootOrder: 7
  m_LocalEulerAnglesHint: {x: 0, y: 0, z: 0}
--- !u!1 &710748657
GameObject:
  m_ObjectHideFlags: 0
  m_PrefabParentObject: {fileID: 0}
  m_PrefabInternal: {fileID: 0}
  serializedVersion: 5
  m_Component:
  - component: {fileID: 710748659}
  - component: {fileID: 710748658}
  m_Layer: 0
  m_Name: Directional light
  m_TagString: Untagged
  m_Icon: {fileID: 0}
  m_NavMeshLayer: 0
  m_StaticEditorFlags: 0
  m_IsActive: 1
--- !u!108 &710748658
Light:
  m_ObjectHideFlags: 0
  m_PrefabParentObject: {fileID: 0}
  m_PrefabInternal: {fileID: 0}
  m_GameObject: {fileID: 710748657}
  m_Enabled: 1
  serializedVersion: 8
  m_Type: 1
  m_Color: {r: 1, g: 1, b: 1, a: 1}
  m_Intensity: 1
  m_Range: 10
  m_SpotAngle: 30
  m_CookieSize: 10
  m_Shadows:
    m_Type: 0
    m_Resolution: -1
    m_CustomResolution: -1
    m_Strength: 1
    m_Bias: 0.05
    m_NormalBias: 0.4
    m_NearPlane: 0.2
  m_Cookie: {fileID: 0}
  m_DrawHalo: 0
  m_Flare: {fileID: 0}
  m_RenderMode: 0
  m_CullingMask:
    serializedVersion: 2
    m_Bits: 4294967295
  m_Lightmapping: 1
  m_AreaSize: {x: 1, y: 1}
  m_BounceIntensity: 1
  m_ColorTemperature: 6570
  m_UseColorTemperature: 0
  m_ShadowRadius: 0
  m_ShadowAngle: 0
--- !u!4 &710748659
Transform:
  m_ObjectHideFlags: 0
  m_PrefabParentObject: {fileID: 0}
  m_PrefabInternal: {fileID: 0}
  m_GameObject: {fileID: 710748657}
  m_LocalRotation: {x: 0.40821794, y: -0.23456973, z: 0.10938166, w: 0.8754261}
  m_LocalPosition: {x: 2, y: 12, z: -3}
  m_LocalScale: {x: 1, y: 1, z: 1}
  m_Children: []
  m_Father: {fileID: 0}
  m_RootOrder: 5
  m_LocalEulerAnglesHint: {x: 0, y: 0, z: 0}
--- !u!1 &999714146
GameObject:
  m_ObjectHideFlags: 0
  m_PrefabParentObject: {fileID: 0}
  m_PrefabInternal: {fileID: 0}
  serializedVersion: 5
  m_Component:
  - component: {fileID: 999714151}
  - component: {fileID: 999714150}
  - component: {fileID: 999714149}
  - component: {fileID: 999714148}
  - component: {fileID: 999714147}
  - component: {fileID: 999714152}
  - component: {fileID: 999714153}
  m_Layer: 0
  m_Name: Main Camera
  m_TagString: MainCamera
  m_Icon: {fileID: 0}
  m_NavMeshLayer: 0
  m_StaticEditorFlags: 0
  m_IsActive: 1
--- !u!81 &999714147
AudioListener:
  m_ObjectHideFlags: 0
  m_PrefabParentObject: {fileID: 0}
  m_PrefabInternal: {fileID: 0}
  m_GameObject: {fileID: 999714146}
  m_Enabled: 1
--- !u!124 &999714148
Behaviour:
  m_ObjectHideFlags: 0
  m_PrefabParentObject: {fileID: 0}
  m_PrefabInternal: {fileID: 0}
  m_GameObject: {fileID: 999714146}
  m_Enabled: 1
--- !u!92 &999714149
Behaviour:
  m_ObjectHideFlags: 0
  m_PrefabParentObject: {fileID: 0}
  m_PrefabInternal: {fileID: 0}
  m_GameObject: {fileID: 999714146}
  m_Enabled: 1
--- !u!20 &999714150
Camera:
  m_ObjectHideFlags: 0
  m_PrefabParentObject: {fileID: 0}
  m_PrefabInternal: {fileID: 0}
  m_GameObject: {fileID: 999714146}
  m_Enabled: 1
  serializedVersion: 2
  m_ClearFlags: 2
  m_BackGroundColor: {r: 0.19215687, g: 0.3019608, b: 0.4745098, a: 0.019607844}
  m_NormalizedViewPortRect:
    serializedVersion: 2
    x: 0
    y: 0
    width: 1
    height: 1
  near clip plane: 0.3
  far clip plane: 1000
  field of view: 60
  orthographic: 0
  orthographic size: 100
  m_Depth: -1
  m_CullingMask:
    serializedVersion: 2
    m_Bits: 4294967295
  m_RenderingPath: -1
  m_TargetTexture: {fileID: 0}
  m_TargetDisplay: 0
  m_TargetEye: 3
  m_HDR: 0
  m_AllowMSAA: 1
  m_ForceIntoRT: 0
  m_OcclusionCulling: 1
  m_StereoConvergence: 10
  m_StereoSeparation: 0.022
  m_StereoMirrorMode: 0
--- !u!4 &999714151
Transform:
  m_ObjectHideFlags: 0
  m_PrefabParentObject: {fileID: 0}
  m_PrefabInternal: {fileID: 0}
  m_GameObject: {fileID: 999714146}
  m_LocalRotation: {x: 0, y: 0, z: 0, w: 1}
  m_LocalPosition: {x: 0, y: 1, z: -4}
  m_LocalScale: {x: 1, y: 1, z: 1}
  m_Children: []
  m_Father: {fileID: 0}
  m_RootOrder: 8
  m_LocalEulerAnglesHint: {x: 0, y: 0, z: 0}
--- !u!114 &999714152
MonoBehaviour:
  m_ObjectHideFlags: 0
  m_PrefabParentObject: {fileID: 0}
  m_PrefabInternal: {fileID: 0}
  m_GameObject: {fileID: 999714146}
  m_Enabled: 1
  m_EditorHideFlags: 0
  m_Script: {fileID: 11500000, guid: 00db858c1f8ff90478dad0aa1bac9a2c, type: 3}
  m_Name: 
  m_EditorClassIdentifier: 
  TwoUsers: 0
  ComputeUserMap: 0
  ComputeColorMap: 0
  DisplayUserMap: 1
  DisplayColorMap: 1
  DisplaySkeletonLines: 1
  DisplayMapsWidthPercent: 20
  SensorHeight: 1
  SensorAngle: 10
  MinUserDistance: 1
  MaxUserDistance: 0
  DetectClosestUser: 1
  IgnoreInferredJoints: 0
  smoothing: 1
  UseBoneOrientationsFilter: 0
  UseClippedLegsFilter: 0
  UseBoneOrientationsConstraint: 1
  UseSelfIntersectionConstraint: 0
  Player1Avatars: []
  Player2Avatars: []
  Player1CalibrationPose: 0
  Player2CalibrationPose: 0
  Player1Gestures: 08000000090000000c0000000d00000007000000
  Player2Gestures: 
  MinTimeBetweenGestures: 0.7
  GestureListeners:
  - {fileID: 999714153}
  CalibrationText: {fileID: 2086377467}
  HandCursor1: {fileID: 353002435}
  HandCursor2: {fileID: 0}
  ControlMouseCursor: 0
  GesturesDebugText: {fileID: 124790326}
--- !u!114 &999714153
MonoBehaviour:
  m_ObjectHideFlags: 0
  m_PrefabParentObject: {fileID: 0}
  m_PrefabInternal: {fileID: 0}
  m_GameObject: {fileID: 999714146}
  m_Enabled: 1
  m_EditorHideFlags: 0
  m_Script: {fileID: 11500000, guid: 54b9637035d55784cbbe08ec594f34d0, type: 3}
  m_Name: 
  m_EditorClassIdentifier: 
  GestureInfo: {fileID: 1326758498}
--- !u!1001 &1058160026
Prefab:
  m_ObjectHideFlags: 0
  serializedVersion: 2
  m_Modification:
    m_TransformParent: {fileID: 0}
    m_Modifications:
    - target: {fileID: 400000, guid: afefae0ae89be7e45aea42e902df00da, type: 3}
      propertyPath: m_LocalPosition.x
      value: 0
      objectReference: {fileID: 0}
    - target: {fileID: 400000, guid: afefae0ae89be7e45aea42e902df00da, type: 3}
      propertyPath: m_LocalPosition.y
      value: 0
      objectReference: {fileID: 0}
    - target: {fileID: 400000, guid: afefae0ae89be7e45aea42e902df00da, type: 3}
      propertyPath: m_LocalPosition.z
      value: 0
      objectReference: {fileID: 0}
    - target: {fileID: 400000, guid: afefae0ae89be7e45aea42e902df00da, type: 3}
      propertyPath: m_LocalRotation.x
      value: 0
      objectReference: {fileID: 0}
    - target: {fileID: 400000, guid: afefae0ae89be7e45aea42e902df00da, type: 3}
      propertyPath: m_LocalRotation.y
      value: 1
      objectReference: {fileID: 0}
    - target: {fileID: 400000, guid: afefae0ae89be7e45aea42e902df00da, type: 3}
      propertyPath: m_LocalRotation.z
      value: 0
      objectReference: {fileID: 0}
    - target: {fileID: 400000, guid: afefae0ae89be7e45aea42e902df00da, type: 3}
      propertyPath: m_LocalRotation.w
      value: -4.37113883e-08
      objectReference: {fileID: 0}
    - target: {fileID: 100000, guid: afefae0ae89be7e45aea42e902df00da, type: 3}
      propertyPath: m_Name
      value: PlaneGrid
      objectReference: {fileID: 0}
    - target: {fileID: 400000, guid: afefae0ae89be7e45aea42e902df00da, type: 3}
      propertyPath: m_RootOrder
      value: 4
      objectReference: {fileID: 0}
    m_RemovedComponents: []
  m_ParentPrefab: {fileID: 100100000, guid: afefae0ae89be7e45aea42e902df00da, type: 3}
  m_IsPrefabParent: 0
--- !u!1 &1254528585 stripped
GameObject:
  m_PrefabParentObject: {fileID: 100004, guid: ae23d50304c93b9418b65cec8f9fe954, type: 3}
  m_PrefabInternal: {fileID: 1402753183}
--- !u!136 &1254528587
CapsuleCollider:
  m_ObjectHideFlags: 0
  m_PrefabParentObject: {fileID: 0}
  m_PrefabInternal: {fileID: 0}
  m_GameObject: {fileID: 1254528585}
  m_Material: {fileID: 0}
  m_IsTrigger: 0
  m_Enabled: 1
  m_Radius: 0.5
  m_Height: 2
  m_Direction: 1
  m_Center: {x: 0, y: 1, z: 0}
--- !u!1 &1326758497
GameObject:
  m_ObjectHideFlags: 0
  m_PrefabParentObject: {fileID: 0}
  m_PrefabInternal: {fileID: 0}
  serializedVersion: 5
  m_Component:
  - component: {fileID: 1326758499}
  - component: {fileID: 1326758498}
  m_Layer: 0
  m_Name: GestureInfo
  m_TagString: Untagged
  m_Icon: {fileID: 0}
  m_NavMeshLayer: 0
  m_StaticEditorFlags: 0
  m_IsActive: 1
--- !u!132 &1326758498
GUIText:
  m_ObjectHideFlags: 0
  m_PrefabParentObject: {fileID: 0}
  m_PrefabInternal: {fileID: 0}
  m_GameObject: {fileID: 1326758497}
  m_Enabled: 1
  serializedVersion: 3
  m_Text: 
  m_Anchor: 0
  m_Alignment: 0
  m_PixelOffset: {x: 0, y: 0}
  m_LineSpacing: 1
  m_TabSize: 4
  m_Font: {fileID: 10102, guid: 0000000000000000e000000000000000, type: 0}
  m_Material: {fileID: 0}
  m_FontSize: 20
  m_FontStyle: 0
  m_Color:
    serializedVersion: 2
    rgba: 4294967295
  m_PixelCorrect: 1
  m_RichText: 1
--- !u!4 &1326758499
Transform:
  m_ObjectHideFlags: 0
  m_PrefabParentObject: {fileID: 0}
  m_PrefabInternal: {fileID: 0}
  m_GameObject: {fileID: 1326758497}
  m_LocalRotation: {x: 0, y: 0, z: 0, w: 1}
  m_LocalPosition: {x: 0, y: 0.94, z: 0}
  m_LocalScale: {x: 1, y: 1, z: 1}
  m_Children: []
  m_Father: {fileID: 0}
  m_RootOrder: 6
  m_LocalEulerAnglesHint: {x: 0, y: 0, z: 0}
--- !u!1001 &1381129588
Prefab:
  m_ObjectHideFlags: 0
  serializedVersion: 2
  m_Modification:
    m_TransformParent: {fileID: 0}
    m_Modifications:
    - target: {fileID: 400036, guid: ed1c50b3cebc9374f9da79ca55dd4e4b, type: 2}
      propertyPath: m_LocalPosition.x
      value: 0
      objectReference: {fileID: 0}
    - target: {fileID: 400036, guid: ed1c50b3cebc9374f9da79ca55dd4e4b, type: 2}
      propertyPath: m_LocalPosition.y
      value: 1
      objectReference: {fileID: 0}
    - target: {fileID: 400036, guid: ed1c50b3cebc9374f9da79ca55dd4e4b, type: 2}
      propertyPath: m_LocalPosition.z
      value: 0
      objectReference: {fileID: 0}
    - target: {fileID: 400036, guid: ed1c50b3cebc9374f9da79ca55dd4e4b, type: 2}
      propertyPath: m_LocalRotation.x
      value: 0
      objectReference: {fileID: 0}
    - target: {fileID: 400036, guid: ed1c50b3cebc9374f9da79ca55dd4e4b, type: 2}
      propertyPath: m_LocalRotation.y
      value: 1
      objectReference: {fileID: 0}
    - target: {fileID: 400036, guid: ed1c50b3cebc9374f9da79ca55dd4e4b, type: 2}
      propertyPath: m_LocalRotation.z
      value: 0
      objectReference: {fileID: 0}
    - target: {fileID: 400036, guid: ed1c50b3cebc9374f9da79ca55dd4e4b, type: 2}
      propertyPath: m_LocalRotation.w
      value: -4.37113883e-08
      objectReference: {fileID: 0}
    - target: {fileID: 400036, guid: ed1c50b3cebc9374f9da79ca55dd4e4b, type: 2}
      propertyPath: m_RootOrder
      value: 3
      objectReference: {fileID: 0}
    - target: {fileID: 100036, guid: ed1c50b3cebc9374f9da79ca55dd4e4b, type: 2}
      propertyPath: m_Name
      value: Cubeman
      objectReference: {fileID: 0}
    - target: {fileID: 11400000, guid: ed1c50b3cebc9374f9da79ca55dd4e4b, type: 2}
      propertyPath: MirroredMovement
      value: 1
      objectReference: {fileID: 0}
    - target: {fileID: 11400000, guid: ed1c50b3cebc9374f9da79ca55dd4e4b, type: 2}
      propertyPath: SkeletonLine
      value: 
      objectReference: {fileID: 12000000, guid: aed58eb378278e648b6fbe8ccc4e6ac3,
        type: 2}
    m_RemovedComponents: []
  m_ParentPrefab: {fileID: 100100000, guid: ed1c50b3cebc9374f9da79ca55dd4e4b, type: 2}
  m_IsPrefabParent: 0
--- !u!1001 &1402753183
Prefab:
  m_ObjectHideFlags: 0
  serializedVersion: 2
  m_Modification:
    m_TransformParent: {fileID: 0}
    m_Modifications:
    - target: {fileID: 400176, guid: ae23d50304c93b9418b65cec8f9fe954, type: 3}
      propertyPath: m_LocalPosition.x
      value: 2
      objectReference: {fileID: 0}
    - target: {fileID: 400176, guid: ae23d50304c93b9418b65cec8f9fe954, type: 3}
      propertyPath: m_LocalPosition.y
      value: 0
      objectReference: {fileID: 0}
    - target: {fileID: 400176, guid: ae23d50304c93b9418b65cec8f9fe954, type: 3}
      propertyPath: m_LocalPosition.z
      value: 0
      objectReference: {fileID: 0}
    - target: {fileID: 400176, guid: ae23d50304c93b9418b65cec8f9fe954, type: 3}
      propertyPath: m_LocalRotation.x
      value: 0
      objectReference: {fileID: 0}
    - target: {fileID: 400176, guid: ae23d50304c93b9418b65cec8f9fe954, type: 3}
      propertyPath: m_LocalRotation.y
      value: 1
      objectReference: {fileID: 0}
    - target: {fileID: 400176, guid: ae23d50304c93b9418b65cec8f9fe954, type: 3}
      propertyPath: m_LocalRotation.z
      value: 0
      objectReference: {fileID: 0}
    - target: {fileID: 400176, guid: ae23d50304c93b9418b65cec8f9fe954, type: 3}
      propertyPath: m_LocalRotation.w
      value: -4.37113883e-08
      objectReference: {fileID: 0}
    - target: {fileID: 9500000, guid: ae23d50304c93b9418b65cec8f9fe954, type: 3}
      propertyPath: m_Enabled
      value: 0
      objectReference: {fileID: 0}
    - target: {fileID: 400068, guid: ae23d50304c93b9418b65cec8f9fe954, type: 3}
      propertyPath: m_LocalRotation.x
      value: -.706952035
      objectReference: {fileID: 0}
    - target: {fileID: 400068, guid: ae23d50304c93b9418b65cec8f9fe954, type: 3}
      propertyPath: m_LocalRotation.y
      value: -.0146810031
      objectReference: {fileID: 0}
    - target: {fileID: 400068, guid: ae23d50304c93b9418b65cec8f9fe954, type: 3}
      propertyPath: m_LocalRotation.z
      value: .70695436
      objectReference: {fileID: 0}
    - target: {fileID: 400068, guid: ae23d50304c93b9418b65cec8f9fe954, type: 3}
      propertyPath: m_LocalRotation.w
      value: .0147939119
      objectReference: {fileID: 0}
    - target: {fileID: 400068, guid: ae23d50304c93b9418b65cec8f9fe954, type: 3}
      propertyPath: m_LocalPosition.x
      value: .0683514029
      objectReference: {fileID: 0}
    - target: {fileID: 400068, guid: ae23d50304c93b9418b65cec8f9fe954, type: 3}
      propertyPath: m_LocalPosition.y
      value: .0750816837
      objectReference: {fileID: 0}
    - target: {fileID: 400068, guid: ae23d50304c93b9418b65cec8f9fe954, type: 3}
      propertyPath: m_LocalPosition.z
      value: .0123760402
      objectReference: {fileID: 0}
    - target: {fileID: 400106, guid: ae23d50304c93b9418b65cec8f9fe954, type: 3}
      propertyPath: m_LocalRotation.x
      value: .00414716406
      objectReference: {fileID: 0}
    - target: {fileID: 400106, guid: ae23d50304c93b9418b65cec8f9fe954, type: 3}
      propertyPath: m_LocalRotation.y
      value: -.70709461
      objectReference: {fileID: 0}
    - target: {fileID: 400106, guid: ae23d50304c93b9418b65cec8f9fe954, type: 3}
      propertyPath: m_LocalRotation.z
      value: -.00414716406
      objectReference: {fileID: 0}
    - target: {fileID: 400106, guid: ae23d50304c93b9418b65cec8f9fe954, type: 3}
      propertyPath: m_LocalRotation.w
      value: .70709461
      objectReference: {fileID: 0}
    - target: {fileID: 400156, guid: ae23d50304c93b9418b65cec8f9fe954, type: 3}
      propertyPath: m_LocalRotation.z
      value: .0359425917
      objectReference: {fileID: 0}
    - target: {fileID: 400156, guid: ae23d50304c93b9418b65cec8f9fe954, type: 3}
      propertyPath: m_LocalRotation.w
      value: -.999353886
      objectReference: {fileID: 0}
    - target: {fileID: 100176, guid: ae23d50304c93b9418b65cec8f9fe954, type: 3}
      propertyPath: m_Name
      value: U_CharacterFront
      objectReference: {fileID: 0}
    - target: {fileID: 400176, guid: ae23d50304c93b9418b65cec8f9fe954, type: 3}
      propertyPath: m_RootOrder
      value: 1
      objectReference: {fileID: 0}
    m_RemovedComponents:
    - {fileID: 9500000, guid: ae23d50304c93b9418b65cec8f9fe954, type: 3}
  m_ParentPrefab: {fileID: 100100000, guid: ae23d50304c93b9418b65cec8f9fe954, type: 3}
  m_IsPrefabParent: 0
--- !u!1001 &1435215108
Prefab:
  m_ObjectHideFlags: 0
  serializedVersion: 2
  m_Modification:
    m_TransformParent: {fileID: 0}
    m_Modifications:
    - target: {fileID: 400176, guid: ae23d50304c93b9418b65cec8f9fe954, type: 3}
      propertyPath: m_LocalPosition.x
      value: -2
      objectReference: {fileID: 0}
    - target: {fileID: 400176, guid: ae23d50304c93b9418b65cec8f9fe954, type: 3}
      propertyPath: m_LocalPosition.y
      value: 0
      objectReference: {fileID: 0}
    - target: {fileID: 400176, guid: ae23d50304c93b9418b65cec8f9fe954, type: 3}
      propertyPath: m_LocalPosition.z
      value: 0
      objectReference: {fileID: 0}
    - target: {fileID: 400176, guid: ae23d50304c93b9418b65cec8f9fe954, type: 3}
      propertyPath: m_LocalRotation.x
      value: 0
      objectReference: {fileID: 0}
    - target: {fileID: 400176, guid: ae23d50304c93b9418b65cec8f9fe954, type: 3}
      propertyPath: m_LocalRotation.y
      value: 0
      objectReference: {fileID: 0}
    - target: {fileID: 400176, guid: ae23d50304c93b9418b65cec8f9fe954, type: 3}
      propertyPath: m_LocalRotation.z
      value: 0
      objectReference: {fileID: 0}
    - target: {fileID: 400176, guid: ae23d50304c93b9418b65cec8f9fe954, type: 3}
      propertyPath: m_LocalRotation.w
      value: 1
      objectReference: {fileID: 0}
    - target: {fileID: 9500000, guid: ae23d50304c93b9418b65cec8f9fe954, type: 3}
      propertyPath: m_Enabled
      value: 0
      objectReference: {fileID: 0}
    - target: {fileID: 100176, guid: ae23d50304c93b9418b65cec8f9fe954, type: 3}
      propertyPath: m_Name
      value: U_CharacterBack
      objectReference: {fileID: 0}
    - target: {fileID: 400138, guid: ae23d50304c93b9418b65cec8f9fe954, type: 3}
      propertyPath: m_LocalRotation.x
      value: -.0169573575
      objectReference: {fileID: 0}
    - target: {fileID: 400138, guid: ae23d50304c93b9418b65cec8f9fe954, type: 3}
      propertyPath: m_LocalRotation.y
      value: -.000188289181
      objectReference: {fileID: 0}
    - target: {fileID: 400138, guid: ae23d50304c93b9418b65cec8f9fe954, type: 3}
      propertyPath: m_LocalRotation.z
      value: .0145297619
      objectReference: {fileID: 0}
    - target: {fileID: 400138, guid: ae23d50304c93b9418b65cec8f9fe954, type: 3}
      propertyPath: m_LocalRotation.w
      value: .999750614
      objectReference: {fileID: 0}
    - target: {fileID: 400138, guid: ae23d50304c93b9418b65cec8f9fe954, type: 3}
      propertyPath: m_LocalPosition.x
      value: 1.3322676e-17
      objectReference: {fileID: 0}
    - target: {fileID: 400138, guid: ae23d50304c93b9418b65cec8f9fe954, type: 3}
      propertyPath: m_LocalPosition.y
      value: -.0935311764
      objectReference: {fileID: 0}
    - target: {fileID: 400138, guid: ae23d50304c93b9418b65cec8f9fe954, type: 3}
      propertyPath: m_LocalPosition.z
      value: 5.68434176e-16
      objectReference: {fileID: 0}
    - target: {fileID: 400020, guid: ae23d50304c93b9418b65cec8f9fe954, type: 3}
      propertyPath: m_LocalRotation.x
      value: 2.55189639e-06
      objectReference: {fileID: 0}
    - target: {fileID: 400020, guid: ae23d50304c93b9418b65cec8f9fe954, type: 3}
      propertyPath: m_LocalRotation.y
      value: -.00289045507
      objectReference: {fileID: 0}
    - target: {fileID: 400020, guid: ae23d50304c93b9418b65cec8f9fe954, type: 3}
      propertyPath: m_LocalRotation.z
      value: .000889341289
      objectReference: {fileID: 0}
    - target: {fileID: 400020, guid: ae23d50304c93b9418b65cec8f9fe954, type: 3}
      propertyPath: m_LocalRotation.w
      value: .99999547
      objectReference: {fileID: 0}
    - target: {fileID: 400020, guid: ae23d50304c93b9418b65cec8f9fe954, type: 3}
      propertyPath: m_LocalPosition.x
      value: -8.43769488e-17
      objectReference: {fileID: 0}
    - target: {fileID: 400020, guid: ae23d50304c93b9418b65cec8f9fe954, type: 3}
      propertyPath: m_LocalPosition.y
      value: -.226996049
      objectReference: {fileID: 0}
    - target: {fileID: 400020, guid: ae23d50304c93b9418b65cec8f9fe954, type: 3}
      propertyPath: m_LocalPosition.z
      value: -3.524292e-14
      objectReference: {fileID: 0}
    m_RemovedComponents:
    - {fileID: 9500000, guid: ae23d50304c93b9418b65cec8f9fe954, type: 3}
  m_ParentPrefab: {fileID: 100100000, guid: ae23d50304c93b9418b65cec8f9fe954, type: 3}
  m_IsPrefabParent: 0
--- !u!1 &1438404428 stripped
GameObject:
  m_PrefabParentObject: {fileID: 100176, guid: ae23d50304c93b9418b65cec8f9fe954, type: 3}
  m_PrefabInternal: {fileID: 1402753183}
--- !u!114 &1438404430
MonoBehaviour:
  m_ObjectHideFlags: 0
  m_PrefabParentObject: {fileID: 0}
  m_PrefabInternal: {fileID: 0}
  m_GameObject: {fileID: 1438404428}
  m_Enabled: 1
  m_EditorHideFlags: 0
  m_Script: {fileID: 11500000, guid: 21d009565a343ca46888bb2b74c7ef3d, type: 3}
  m_Name: 
  m_EditorClassIdentifier: 
  mirroredMovement: 1
  verticalMovement: 1
  smoothFactor: 5
  offsetRelativeToSensor: 0
--- !u!95 &1438404431
Animator:
  serializedVersion: 3
  m_ObjectHideFlags: 0
  m_PrefabParentObject: {fileID: 0}
  m_PrefabInternal: {fileID: 0}
  m_GameObject: {fileID: 1438404428}
  m_Enabled: 1
  m_Avatar: {fileID: 9000000, guid: ae23d50304c93b9418b65cec8f9fe954, type: 3}
  m_Controller: {fileID: 0}
  m_CullingMode: 0
  m_UpdateMode: 0
  m_ApplyRootMotion: 1
  m_LinearVelocityBlending: 0
  m_WarningMessage: 
  m_HasTransformHierarchy: 1
  m_AllowConstantClipSamplingOptimization: 1
--- !u!1 &1525537503
GameObject:
  m_ObjectHideFlags: 0
  m_PrefabParentObject: {fileID: 0}
  m_PrefabInternal: {fileID: 0}
  serializedVersion: 5
  m_Component:
  - component: {fileID: 1525537505}
  - component: {fileID: 1525537504}
  m_Layer: 0
  m_Name: Point light
  m_TagString: Untagged
  m_Icon: {fileID: 0}
  m_NavMeshLayer: 0
  m_StaticEditorFlags: 0
  m_IsActive: 1
--- !u!108 &1525537504
Light:
  m_ObjectHideFlags: 0
  m_PrefabParentObject: {fileID: 0}
  m_PrefabInternal: {fileID: 0}
  m_GameObject: {fileID: 1525537503}
  m_Enabled: 1
  serializedVersion: 8
  m_Type: 2
  m_Color: {r: 1, g: 1, b: 1, a: 1}
  m_Intensity: 3.8
  m_Range: 10
  m_SpotAngle: 30
  m_CookieSize: 10
  m_Shadows:
    m_Type: 0
    m_Resolution: -1
    m_CustomResolution: -1
    m_Strength: 1
    m_Bias: 0.05
    m_NormalBias: 0.4
    m_NearPlane: 0.2
  m_Cookie: {fileID: 0}
  m_DrawHalo: 0
  m_Flare: {fileID: 0}
  m_RenderMode: 0
  m_CullingMask:
    serializedVersion: 2
    m_Bits: 4294967295
  m_Lightmapping: 1
  m_AreaSize: {x: 1, y: 1}
  m_BounceIntensity: 1
  m_ColorTemperature: 6570
  m_UseColorTemperature: 0
  m_ShadowRadius: 0
  m_ShadowAngle: 0
--- !u!4 &1525537505
Transform:
  m_ObjectHideFlags: 0
  m_PrefabParentObject: {fileID: 0}
  m_PrefabInternal: {fileID: 0}
  m_GameObject: {fileID: 1525537503}
  m_LocalRotation: {x: 0, y: 0, z: 0, w: 1}
  m_LocalPosition: {x: 0, y: 4, z: 2}
  m_LocalScale: {x: 1, y: 1, z: 1}
  m_Children: []
  m_Father: {fileID: 0}
  m_RootOrder: 9
  m_LocalEulerAnglesHint: {x: 0, y: 0, z: 0}
--- !u!1 &1955633938 stripped
GameObject:
  m_PrefabParentObject: {fileID: 100004, guid: ae23d50304c93b9418b65cec8f9fe954, type: 3}
  m_PrefabInternal: {fileID: 1435215108}
--- !u!136 &1955633940
CapsuleCollider:
  m_ObjectHideFlags: 0
  m_PrefabParentObject: {fileID: 0}
  m_PrefabInternal: {fileID: 0}
  m_GameObject: {fileID: 1955633938}
  m_Material: {fileID: 0}
  m_IsTrigger: 0
  m_Enabled: 1
  m_Radius: 0.5
  m_Height: 2
  m_Direction: 1
  m_Center: {x: 0, y: 1, z: 0}
--- !u!1 &2086377466
GameObject:
  m_ObjectHideFlags: 0
  m_PrefabParentObject: {fileID: 0}
  m_PrefabInternal: {fileID: 0}
  serializedVersion: 5
  m_Component:
  - component: {fileID: 2086377468}
  - component: {fileID: 2086377467}
  m_Layer: 0
  m_Name: CalibrationText
  m_TagString: Untagged
  m_Icon: {fileID: 0}
  m_NavMeshLayer: 0
  m_StaticEditorFlags: 0
  m_IsActive: 1
--- !u!132 &2086377467
GUIText:
  m_ObjectHideFlags: 0
  m_PrefabParentObject: {fileID: 0}
  m_PrefabInternal: {fileID: 0}
  m_GameObject: {fileID: 2086377466}
  m_Enabled: 1
  serializedVersion: 3
  m_Text: 
  m_Anchor: 0
  m_Alignment: 0
  m_PixelOffset: {x: 0, y: 0}
  m_LineSpacing: 1
  m_TabSize: 4
  m_Font: {fileID: 10102, guid: 0000000000000000e000000000000000, type: 0}
  m_Material: {fileID: 0}
  m_FontSize: 20
  m_FontStyle: 0
  m_Color:
    serializedVersion: 2
    rgba: 4294967295
  m_PixelCorrect: 1
  m_RichText: 1
--- !u!4 &2086377468
Transform:
  m_ObjectHideFlags: 0
  m_PrefabParentObject: {fileID: 0}
  m_PrefabInternal: {fileID: 0}
  m_GameObject: {fileID: 2086377466}
  m_LocalRotation: {x: 0, y: 0, z: 0, w: 1}
  m_LocalPosition: {x: 0, y: 1, z: 0}
  m_LocalScale: {x: 1, y: 1, z: 1}
  m_Children: []
  m_Father: {fileID: 0}
  m_RootOrder: 2
  m_LocalEulerAnglesHint: {x: 0, y: 0, z: 0}
